───────────────────────────────────────────────────────────────────────────────
Language                 Files     Lines     Code  Comments   Blanks Complexity
───────────────────────────────────────────────────────────────────────────────
Go                          23      3920     3199       305      416        518
Plain Text                   1         0        0         0        0          0
───────────────────────────────────────────────────────────────────────────────
Total                       24      3920     3199       305      416        518
───────────────────────────────────────────────────────────────────────────────
Estimated Cost to Develop $91,592
Estimated Schedule Effort 6.185826 months
Estimated People Required 1.753950
───────────────────────────────────────────────────────────────────────────────

